{
    "workbench.iconTheme": "material-icon-theme",
    "editor.fontFamily": "'FiraCode Nerd Font Mono', 'Droid Sans Mono', 'monospace', monospace",
    "editor.fontLigatures": true,
    "editor.bracketPairColorization.enabled": true,
    "workbench.colorCustomizations": {
        "editor.background": "#fffaed",
        "editor.lineHighlightBackground": "#fff",
        "editor.lineHighlightBorder": "#ecaf07",
        "editor.selectionBackground": "#c3dfd5",
        "editor.selectionHighlightBackground": "#69ff05b0",
        "editorOverviewRuler.selectionHighlightForeground": "#fff",
        "editor.selectionHighlightBorder": "#fffaed",
        "editor.wordHighlightBackground": "#00cc44a8",
        "editorBracketHighlight.unexpectedBracket.foreground": "#ff0000",
        "editorCursor.foreground": "#77716ca1",
        "editorCursor.background": "#fff",
        "editorLineNumber.foreground": "#0a82be",
        "editorLineNumber.activeForeground": "#e71b1b",
        "editorBracketHighlight.foreground1": "#ee0625",
        "editorBracketHighlight.foreground2": "#1c8125",
        "editorBracketHighlight.foreground3": "#db14a9",
        "editorBracketHighlight.foreground4": "#0cfabf",
        "editorBracketHighlight.foreground5": "#ec2e77",
        "editorBracketHighlight.foreground6": "#a54005",
        "list.hoverBackground": "#41a6d9",
    },
    "explorer.experimental.fileNesting.enabled": true,
    "explorer.experimental.fileNesting.expand": false,
    "explorer.experimental.fileNesting.patterns": {
        "*.ts": "$(capture).js, $(capture).*.ts",
        "*.js": "$(capture).js.map, $(capture).min.js, $(capture).d.ts",
        "*.jsx": "$(capture).js",
        "*.tsx": "$(capture).ts",
        "*.res": "$(capture).bs.js, $(capture).gen.tsx",
        "tsconfig.json": "tsconfig.*.json",
        "package.json": "package-lock.json, .npmrc, yarn.lock, .yarnrc, pnpm-lock.yaml"
    },
    "editor.minimap.enabled": false,
    "workbench.colorTheme": "Default Light+",
    "editor.wordWrap": "bounded",
    "explorer.confirmDelete": false,
    "editor.formatOnSave": true,
    "nix.enableLanguageServer": true,
    "editor.tabSize": 2,
    "workbench.sideBar.location": "right",
    "update.mode": "none",
    "vim.foldfix": true,
    "vim.highlightedyank.enable": true,
    "markdown.preview.fontSize": 16
}